{
  "definitions": {},
  "$schema": "http://json-schema.org/draft-07/schema#",
  "$id": "http://example.com/root.json",
  "type": "object",
  "title": "The Root Schema",
  "required": [
    "result"
  ],
  "properties": {
    "result": {
      "$id": "#/properties/result",
      "type": "array",
      "title": "The Result Schema",
      "minItems": 1,
      "items": {
        "$id": "#/properties/result/items",
        "type": "object",
        "title": "The Items Schema",
        "required": [
          "education",
          "height",
          "identity",
          "name",
          "other_aliases",
          "universe",
          "weight"
        ],
        "properties": {
          "education": {
            "$id": "#/properties/result/items/properties/education",
            "type": "string",
            "title": "The Education Schema"
          },
          "height": {
            "$id": "#/properties/result/items/properties/height",
            "type": "number",
            "title": "The Height Schema"
          },
          "identity": {
            "$id": "#/properties/result/items/properties/identity",
            "type": "string",
            "title": "The Identity Schema"
          },
          "name": {
            "$id": "#/properties/result/items/properties/name",
            "type": "string",
            "title": "The Name Schema"
          },
          "other_aliases": {
            "$id": "#/properties/result/items/properties/other_aliases",
            "type": "string",
            "title": "The Other_aliases Schema"
          },
          "universe": {
            "$id": "#/properties/result/items/properties/universe",
            "type": "string",
            "title": "The Universe Schema"
          },
          "weight": {
            "$id": "#/properties/result/items/properties/weight",
            "type": "number",
            "title": "The Weight Schema"
          }
        }
      }
    }
  }
}
